test2.vcd
$date
	Tue Jul 12 15:29:37 2016
$end
$version
	ModelSim Version 10.4d
$end
$timescale
	1ps
$end

$scope module tb_and_test $end
$var parameter 32 ! test $end
$var reg 1 " i1 $end
$var reg 1 # i2 $end
$var reg 1 $ i3 $end
$var reg 1 % i4 $end
$upscope $end
$enddefinitions $end
#0
$dumpvars
0"
0#
x$
x%
b1000 !
$end
#200
1$
#700
1"
#900
0$
#1000
1%
#1300
0"
#1800
1#
#2300
1"
#2800
0%
#3100
1$
#3400
1%
#3600
0#
#3800
0"
#4100
0$
