test.vcd
$date
	Tue Jun 28 13:51:14 2016
$end
$version
	ModelSim Version 10.4d
$end
$timescale
	1ps
$end

$scope module tb_and_test $end
$var parameter 32 ! test $end
$var wire 1 " out $end
$var reg 1 # i1 $end
$var reg 1 $ i2 $end
$upscope $end
$enddefinitions $end
#0
$dumpvars
0#
0$
b1000 !
0"
$end
#500
1#
#1000
1$
1"
#1500
0#
0"
#2000
0$
#2300
1#
#2800
1$
1"
#3000
0#
0"
#3300
0$
#3500
1$
#4000
1#
#4500
0#

